# 3ds Max Wavefront OBJ Exporter v0.97b - (c)2007 guruware
# File Created: 05.12.2018 00:22:29

mtllib track2.mtl

#
# object Track
#

v  -183.0275 0.8599 115.3768
v  177.8310 0.0000 115.5160
v  177.8310 0.0000 56.0336
v  -182.9441 0.6430 55.9144
v  177.8310 0.0000 -3.4488
v  -182.7058 0.4267 -3.6827
v  177.8310 0.0000 -62.9312
v  -182.8586 0.7312 -62.9860
v  177.8310 0.0000 -122.4137
v  -182.7560 0.1283 -122.1276
v  1410.9208 0.0000 115.5160
v  1410.9208 0.0000 56.0336
v  1410.9208 0.0000 -3.4488
v  1410.9208 0.0000 -62.9312
v  1410.9208 0.0000 -122.4137
v  1498.8719 0.0000 79.6799
v  1465.0997 0.0000 37.2895
v  1456.5289 0.0000 -9.4465
v  1458.5413 0.0000 -83.8267
v  1440.3784 0.0000 -130.5471
v  1565.4727 0.0000 40.6826
v  1542.6531 0.0000 -12.5125
v  1516.9077 0.0000 -54.7261
v  1488.3317 0.0000 -101.8727
v  1462.3263 0.0000 -150.8330
v  1612.1681 0.0000 -66.2735
v  1668.0442 0.0000 -57.2917
v  1569.9945 0.0000 -94.6216
v  1521.7961 0.0000 -130.8745
v  1476.2880 0.0000 -169.8008
v  1727.5291 0.0000 -193.6953
v  1663.0786 0.0000 -193.9026
v  1602.2363 0.0000 -193.8432
v  1543.9387 0.0000 -194.0893
v  1487.6427 0.0000 -194.2147
v  1764.6746 0.0000 -483.8925
v  1700.2241 0.0000 -484.0998
v  1639.3818 0.0000 -484.0404
v  1581.0842 0.0000 -484.2865
v  1524.7882 0.0000 -484.4120
v  1783.1100 0.0000 -544.1323
v  1716.5553 0.0000 -553.5515
v  1657.2715 0.0000 -563.3424
v  1601.5807 0.0000 -570.3057
v  1545.2847 0.0000 -570.4311
v  1817.2804 0.0000 -590.4634
v  1743.8019 0.0000 -597.5925
v  1701.4043 0.0000 -605.9763
v  1647.4731 0.0000 -624.5150
v  1605.2051 0.0000 -687.0562
v  1873.4963 0.0000 -615.5446
v  1829.0072 0.0000 -648.8876
v  1802.0886 0.0000 -675.5647
v  1779.7808 0.0000 -721.6774
v  1745.0031 0.0000 -773.8288
v  1978.9520 0.0000 -638.3088
v  1952.4221 0.0000 -677.8344
v  1925.5621 0.0000 -719.5661
v  1903.5707 0.0000 -755.5209
v  1848.9358 0.0000 -829.2386
v  2104.0176 0.0000 -642.7845
v  2103.9011 0.0000 -688.0201
v  2104.0002 0.0000 -738.5350
v  2103.0479 0.0000 -792.3497
v  2102.6133 0.0000 -844.2160
v  3130.5413 0.0000 -642.7845
v  3130.4248 0.0000 -688.0201
v  3130.5239 0.0000 -738.5350
v  3129.5715 0.0000 -792.3497
v  3129.1370 0.0000 -844.2160
v  3140.6130 0.0000 -639.0014
v  3156.5435 0.0000 -675.3751
v  3178.3848 0.0000 -718.0181
v  3206.0039 0.0000 -764.4608
v  3233.6748 0.0000 -813.5896
v  3144.9116 0.0000 -631.4081
v  3173.5361 0.0000 -645.8406
v  3144.9126 0.0000 -622.8173
v  3173.9377 0.0000 -611.5148
v  3159.8059 0.0000 -583.9692
v  3140.7666 0.0000 -615.6121
v  3129.7188 0.0000 -611.5917
v  3129.7634 0.0000 -569.3123
v  3267.4724 0.0000 -693.5978
v  3319.9092 0.0000 -719.9579
v  3265.9231 0.0000 -593.1005
v  3321.4014 0.0000 -586.6233
v  3205.4519 0.0000 -508.2547
v  3232.3274 0.0000 -457.0861
v  3129.1514 0.0000 -468.9626
v  3128.9302 0.0000 -410.5161
v  3208.1406 0.0000 -667.4806
v  3209.9934 0.0000 -603.8350
v  3183.2002 0.0000 -545.8543
v  3129.7810 0.0000 -520.2642
v  3087.5520 -4.3745 -611.5917
v  3087.5967 -4.3745 -569.3123
v  3086.9846 -4.3745 -468.9626
v  3086.7634 -4.3745 -410.5161
v  3087.6143 -4.3745 -520.2642
v  3055.8340 -11.5565 -611.5917
v  3055.8787 -11.5565 -569.3123
v  3055.2666 -11.5565 -468.9626
v  3055.0454 -11.5565 -410.5161
v  3055.8962 -11.5565 -520.2642
v  2899.1377 -38.0867 -611.5917
v  2899.1824 -38.0867 -569.3123
v  2898.5703 -38.0867 -468.9626
v  2898.3491 -38.0867 -410.5161
v  2899.2000 -38.0867 -520.2642
v  2720.0867 -72.9391 -611.5917
v  2720.1313 -72.9391 -569.3123
v  2719.5193 -72.9391 -468.9626
v  2719.2981 -72.9391 -410.5161
v  2720.1489 -72.9391 -520.2642
v  2044.2886 -261.1181 -611.5917
v  2044.3333 -261.1181 -569.3123
v  2043.7212 -261.1181 -468.9626
v  2043.5000 -261.1181 -410.5161
v  2044.3508 -261.1181 -520.2642
v  1221.7379 -264.1369 -611.5917
v  1221.7826 -264.1369 -569.3123
v  1221.1705 -264.1369 -468.9626
v  1220.9493 -264.1369 -410.5161
v  1221.8002 -264.1368 -520.2642
v  932.7077 -227.4030 -611.5917
v  932.7524 -227.4030 -569.3123
v  932.1403 -227.4030 -468.9626
v  931.9191 -227.4030 -410.5161
v  932.7700 -227.4030 -520.2642
v  579.1467 -95.6232 -611.5917
v  579.1913 -95.6232 -569.3123
v  578.5793 -95.6232 -468.9626
v  578.3581 -95.6232 -410.5161
v  579.2089 -95.6232 -520.2642
v  548.7180 -95.6232 -612.6848
v  548.7626 -95.6232 -570.4053
v  540.8456 -95.6232 -469.1061
v  519.3238 -95.6232 -412.7139
v  548.7802 -95.6232 -521.3572
v  524.9531 -95.6232 -624.1916
v  505.5208 -95.6232 -569.1391
v  471.2383 -95.6232 -480.4328
v  448.4571 -95.6232 -428.2813
v  494.3054 -95.6232 -530.1299
v  512.9813 -95.6232 -647.4481
v  467.8080 -95.6232 -595.0099
v  412.3175 -95.6232 -538.6686
v  355.8097 -95.6232 -501.5547
v  443.9035 -95.6232 -568.6653
v  501.7530 -95.6232 -686.3066
v  446.8850 -95.6232 -685.9808
v  336.3180 -95.6232 -686.3948
v  275.8944 -95.6232 -686.8840
v  393.2925 -95.6232 -685.8776
v  449.3207 -72.5787 -883.2230
v  397.6239 -72.5787 -882.8971
v  298.4762 -72.5787 -883.3111
v  248.4969 -72.5787 -883.8003
v  348.8853 -72.5787 -882.7939
v  426.6933 -35.6850 -1131.0480
v  374.9965 -35.6850 -1130.7220
v  275.8488 -35.6850 -1131.1361
v  225.8694 -35.6850 -1131.6251
v  326.2578 -35.6849 -1130.6188
v  426.6933 -2.2438 -1352.5336
v  374.9965 -2.2438 -1352.2076
v  275.8488 -2.2438 -1352.6217
v  225.8694 -2.2438 -1353.1107
v  326.2578 -2.2437 -1352.1044
v  404.5522 -2.2438 -1431.0211
v  350.9195 -2.2438 -1406.1078
v  265.0283 -2.2438 -1369.4175
v  224.8089 -2.2438 -1360.7357
v  302.3766 -2.2437 -1382.8324
v  314.1781 -2.2438 -1445.2794
v  358.7811 -2.2438 -1490.3801
v  247.1178 -2.2438 -1384.0004
v  220.9392 -2.2438 -1368.2931
v  279.4911 -2.2437 -1412.3407
v  283.2806 -2.2438 -1474.8344
v  317.9626 -2.2438 -1528.6317
v  231.0514 -2.2438 -1396.8384
v  210.3853 -2.2438 -1374.5104
v  257.4545 -2.2437 -1436.1240
v  242.4724 -2.2438 -1507.4883
v  258.8612 -2.2438 -1561.2858
v  209.7086 -2.2438 -1409.3984
v  196.6654 -2.2438 -1377.2620
v  227.6273 -2.2437 -1455.3198
v  171.5981 -2.2438 -1575.9700
v  171.7093 -2.2438 -1527.6393
v  170.3207 -2.2438 -1426.5592
v  170.2808 -2.2438 -1376.8110
v  170.8531 -2.2437 -1475.7950
v  -2252.6545 -187.3779 -1575.9700
v  -2252.5437 -187.3779 -1527.6393
v  -2253.9319 -187.3779 -1426.5592
v  -2253.9719 -187.3779 -1376.8110
v  -2253.3992 -187.3779 -1475.7950
v  -2813.2683 -187.3779 -1575.9700
v  -2813.1575 -187.3779 -1527.6393
v  -2814.5457 -187.3779 -1426.5592
v  -2814.5857 -187.3779 -1376.8110
v  -2814.0129 -187.3779 -1475.7950
v  -2899.6335 -187.3779 -1557.2992
v  -2888.2656 -187.3779 -1514.7831
v  -2862.9141 -187.3779 -1422.5348
v  -2847.2551 -187.3779 -1365.1970
v  -2876.4543 -187.3779 -1470.1741
v  -3002.0327 -187.3779 -1500.4563
v  -2967.4473 -187.3779 -1464.8011
v  -2909.7603 -187.3779 -1385.9072
v  -2882.6250 -187.3779 -1340.3978
v  -2938.8926 -187.3779 -1427.9890
v  -3083.0662 -187.3779 -1416.3877
v  -3041.8040 -187.3779 -1388.2430
v  -2959.9280 -187.3779 -1331.0868
v  -2918.6223 -187.3779 -1301.9331
v  -2998.7007 -187.3779 -1358.4327
v  -3296.4507 -187.3779 -1139.3542
v  -3255.1885 -187.3779 -1111.2096
v  -3173.3125 -187.3779 -1054.0533
v  -3132.0068 -187.3779 -1024.8997
v  -3212.0852 -187.3779 -1081.3993
v  -3378.0320 -187.3779 -958.3307
v  -3330.6123 -187.3779 -941.4584
v  -3238.8787 -187.3779 -914.6349
v  -3191.0461 -187.3779 -898.3854
v  -3277.6116 -187.3779 -925.5835
v  -3901.2554 -187.3779 616.7023
v  -3853.8357 -187.3779 633.5746
v  -3762.1021 -187.3779 660.3982
v  -3714.2695 -187.3779 676.6476
v  -3800.8350 -187.3779 649.4496
v  -3921.6106 -187.3779 693.4421
v  -3858.7302 -187.3779 681.8891
v  -3768.8301 -187.3779 690.3528
v  -3716.8652 -187.3779 701.8303
v  -3807.5630 -187.3779 679.4042
v  -3904.2556 -187.3779 799.1920
v  -3842.7808 -187.3779 774.1747
v  -3764.4846 -187.3779 745.1703
v  -3710.9690 -187.3779 729.0516
v  -3799.5466 -187.3779 755.5584
v  -3834.5569 -187.3779 888.8566
v  -3801.3784 -187.3779 852.6782
v  -3738.6272 -187.3779 790.4959
v  -3695.7964 -187.3779 744.5994
v  -3768.6365 -187.3779 821.1144
v  -3731.6199 -187.3779 940.3525
v  -3721.6938 -187.3779 903.5859
v  -3692.6816 -187.3779 818.2675
v  -3669.8882 -187.3779 756.5819
v  -3706.7422 -187.3779 857.2390
v  -3603.1372 -187.3779 937.3622
v  -3615.5930 -187.3779 895.7101
v  -3635.9739 -187.3779 814.6318
v  -3643.7695 -187.3779 758.9662
v  -3628.0452 -187.3779 855.7708
v  -3534.7361 -187.3779 907.1976
v  -3553.8369 -187.3779 872.9912
v  -3591.2366 -187.3779 799.7905
v  -3624.1284 -187.3779 746.7959
v  -3569.5188 -187.3779 838.7564
v  -3468.5049 -187.3779 844.4766
v  -3496.5134 -187.3779 822.3421
v  -3562.6758 -187.3779 767.3334
v  -3612.2971 -187.3779 728.0195
v  -3530.2883 -187.3779 793.0888
v  -2956.4707 -187.3779 161.7751
v  -2984.4792 -187.3779 139.6406
v  -3050.6416 -187.3779 84.6319
v  -3100.2629 -187.3779 45.3180
v  -3018.2542 -187.3779 110.3873
v  -2935.2649 -187.3779 141.8099
v  -2950.6694 -187.3779 119.9352
v  -2998.3674 -187.3779 40.6897
v  -3028.8184 -187.3779 -23.9787
v  -2975.9106 -187.3779 76.1964
v  -2901.0488 -187.3779 124.7968
v  -2909.3069 -187.3779 96.6025
v  -2928.1619 -187.3779 7.0072
v  -2944.5352 -187.3779 -62.8111
v  -2920.5857 -187.3779 59.7433
v  -2850.3577 -187.3779 117.2412
v  -2850.1909 -187.3779 66.8215
v  -2849.8147 -187.3779 -85.6929
v  -2850.0200 -187.3779 -36.3849
v  -2849.7144 -187.3779 15.1031
v  -2783.0613 -179.2351 117.2412
v  -2782.8945 -179.2351 66.8215
v  -2782.7236 -179.2351 -36.3849
v  -2782.5183 -179.2351 -85.6929
v  -2782.4180 -179.2350 15.1031
v  -1757.7241 -0.8054 117.2412
v  -1757.5574 -0.8054 55.7951
v  -1757.3865 -0.8054 -60.8510
v  -1757.1812 -0.8054 -115.5996
v  -1757.0808 -0.8053 -3.9167
# 300 vertices

vn 0.0018 1.0000 -0.0033
vn 0.0024 1.0000 -0.0000
vn 0.0021 1.0000 -0.0002
vn 0.0015 1.0000 -0.0034
vn 0.0015 1.0000 -0.0002
vn 0.0016 1.0000 0.0005
vn 0.0016 1.0000 0.0003
vn 0.0013 1.0000 -0.0020
vn 0.0019 1.0000 -0.0011
vn 0.0003 0.9999 -0.0102
vn 0.0000 1.0000 -0.0000
vn -0.1032 0.9947 0.0001
vn -0.1032 0.9947 -0.0004
vn -0.1032 0.9947 0.0000
vn -0.1032 0.9947 -0.0013
vn -0.2208 0.9753 0.0002
vn -0.2208 0.9753 -0.0008
vn -0.2208 0.9753 0.0001
vn -0.2208 0.9753 -0.0027
vn -0.1669 0.9860 0.0002
vn -0.1669 0.9860 -0.0006
vn -0.1669 0.9860 0.0001
vn -0.1669 0.9860 -0.0020
vn -0.1911 0.9816 0.0002
vn -0.1911 0.9816 -0.0007
vn -0.1911 0.9816 0.0001
vn -0.1911 0.9816 -0.0023
vn -0.2682 0.9633 0.0003
vn -0.2682 0.9633 -0.0010
vn -0.2682 0.9633 0.0001
vn -0.2682 0.9633 -0.0033
vn -0.0037 1.0000 0.0000
vn -0.0037 1.0000 -0.0000
vn 0.1261 0.9920 -0.0001
vn 0.1261 0.9920 0.0005
vn 0.1261 0.9920 -0.0000
vn 0.1261 0.9920 0.0015
vn 0.3493 0.9370 -0.0004
vn 0.3493 0.9370 0.0013
vn 0.3493 0.9370 -0.0001
vn 0.3492 0.9370 0.0043
vn -0.0000 1.0000 0.0000
vn -0.0000 1.0000 -0.0000
vn 0.0007 0.9932 0.1161
vn -0.0009 0.9932 0.1164
vn -0.0011 0.9932 0.1164
vn 0.0002 0.9932 0.1162
vn -0.0011 0.9932 0.1165
vn -0.0012 0.9932 0.1165
vn 0.0009 0.9891 0.1472
vn -0.0014 0.9891 0.1474
vn 0.0003 0.9891 0.1472
vn -0.0015 0.9891 0.1474
vn 0.0009 0.9888 0.1493
vn -0.0015 0.9888 0.1493
vn 0.0003 0.9888 0.1493
vn -0.0761 0.9971 0.0002
vn -0.0761 0.9971 -0.0001
vn -0.0761 0.9971 -0.0013
vn -0.0761 0.9971 -0.0008
vn 0.0000 1.0000 0.0000
vn -0.1201 0.9928 -0.0004
vn -0.1201 0.9928 -0.0005
vn -0.1201 0.9928 -0.0011
vn -0.1201 0.9928 0.0007
vn -0.1714 0.9852 -0.0006
vn -0.1714 0.9852 -0.0005
vn -0.1715 0.9852 -0.0007
vn -0.1715 0.9852 -0.0006
vn -0.1715 0.9852 -0.0016
vn -0.1715 0.9852 -0.0014
vn -0.1714 0.9852 0.0010
vn -0.1714 0.9852 0.0009
vn -0.0011 1.0000 -0.0000
vn -0.0009 1.0000 -0.0036
vn -0.0010 1.0000 -0.0000
vn -0.0006 0.9999 -0.0102
vn -0.0009 1.0000 -0.0000
vn -0.0008 1.0000 -0.0036
vn -0.0008 1.0000 0.0000
vn -0.0010 1.0000 0.0051
# 81 vertex normals

vt 0.0000 0.0000 0.0000
vt 1.0000 0.0000 0.0000
vt 1.0000 0.2500 0.0000
vt 0.0000 0.2500 0.0000
vt 1.0000 0.5000 0.0000
vt 0.0000 0.5000 0.0000
vt 1.0000 0.7500 0.0000
vt 0.0000 0.7500 0.0000
vt 1.0000 1.0000 0.0000
vt 0.0000 1.0000 0.0000
# 10 texture coords

o Track
g Track
usemtl wire_008008008
s 1
f 1/1/1 2/2/2 3/3/3 
f 3/3/3 4/4/4 1/1/1 
f 4/4/4 3/3/3 5/5/5 
f 5/5/5 6/6/6 4/4/4 
f 6/6/6 5/5/5 7/7/7 
f 7/7/7 8/8/8 6/6/6 
f 8/8/8 7/7/7 9/9/9 
f 9/9/9 10/10/10 8/8/8 
s off
f 3/3/11 2/2/11 11/2/11 
f 11/2/11 12/3/11 3/3/11 
f 5/5/11 3/3/11 12/3/11 
f 12/3/11 13/5/11 5/5/11 
f 7/7/11 5/5/11 13/5/11 
f 13/5/11 14/7/11 7/7/11 
f 9/9/11 7/7/11 14/7/11 
f 14/7/11 15/9/11 9/9/11 
f 12/3/11 11/2/11 16/2/11 
f 16/2/11 17/3/11 12/3/11 
f 13/5/11 12/3/11 17/3/11 
f 17/3/11 18/5/11 13/5/11 
f 14/7/11 13/5/11 18/5/11 
f 18/5/11 19/7/11 14/7/11 
f 15/9/11 14/7/11 19/7/11 
f 19/7/11 20/9/11 15/9/11 
f 17/3/11 16/2/11 21/2/11 
f 21/2/11 22/3/11 17/3/11 
f 18/5/11 17/3/11 22/3/11 
f 22/3/11 23/5/11 18/5/11 
f 19/7/11 18/5/11 23/5/11 
f 23/5/11 24/7/11 19/7/11 
f 20/9/11 19/7/11 24/7/11 
f 24/7/11 25/9/11 20/9/11 
f 26/3/11 22/3/11 21/2/11 
f 21/2/11 27/2/11 26/3/11 
f 23/5/11 22/3/11 26/3/11 
f 26/3/11 28/5/11 23/5/11 
f 24/7/11 23/5/11 28/5/11 
f 28/5/11 29/7/11 24/7/11 
f 25/9/11 24/7/11 29/7/11 
f 29/7/11 30/9/11 25/9/11 
f 26/3/11 27/2/11 31/2/11 
f 31/2/11 32/3/11 26/3/11 
f 28/5/11 26/3/11 32/3/11 
f 32/3/11 33/5/11 28/5/11 
f 29/7/11 28/5/11 33/5/11 
f 33/5/11 34/7/11 29/7/11 
f 30/9/11 29/7/11 34/7/11 
f 34/7/11 35/9/11 30/9/11 
f 32/3/11 31/2/11 36/2/11 
f 36/2/11 37/3/11 32/3/11 
f 33/5/11 32/3/11 37/3/11 
f 37/3/11 38/5/11 33/5/11 
f 34/7/11 33/5/11 38/5/11 
f 38/5/11 39/7/11 34/7/11 
f 35/9/11 34/7/11 39/7/11 
f 39/7/11 40/9/11 35/9/11 
f 37/3/11 36/2/11 41/2/11 
f 41/2/11 42/3/11 37/3/11 
f 38/5/11 37/3/11 42/3/11 
f 42/3/11 43/5/11 38/5/11 
f 39/7/11 38/5/11 43/5/11 
f 43/5/11 44/7/11 39/7/11 
f 40/9/11 39/7/11 44/7/11 
f 44/7/11 45/9/11 40/9/11 
f 42/3/11 41/2/11 46/2/11 
f 46/2/11 47/3/11 42/3/11 
f 43/5/11 42/3/11 47/3/11 
f 47/3/11 48/5/11 43/5/11 
f 44/7/11 43/5/11 48/5/11 
f 48/5/11 49/7/11 44/7/11 
f 45/9/11 44/7/11 49/7/11 
f 49/7/11 50/9/11 45/9/11 
f 47/3/11 46/2/11 51/2/11 
f 51/2/11 52/3/11 47/3/11 
f 48/5/11 47/3/11 52/3/11 
f 52/3/11 53/5/11 48/5/11 
f 49/7/11 48/5/11 53/5/11 
f 53/5/11 54/7/11 49/7/11 
f 50/9/11 49/7/11 54/7/11 
f 54/7/11 55/9/11 50/9/11 
f 52/3/11 51/2/11 56/2/11 
f 56/2/11 57/3/11 52/3/11 
f 53/5/11 52/3/11 57/3/11 
f 57/3/11 58/5/11 53/5/11 
f 54/7/11 53/5/11 58/5/11 
f 58/5/11 59/7/11 54/7/11 
f 55/9/11 54/7/11 59/7/11 
f 59/7/11 60/9/11 55/9/11 
f 57/3/11 56/2/11 61/2/11 
f 61/2/11 62/3/11 57/3/11 
f 63/5/11 58/5/11 57/3/11 
f 57/3/11 62/3/11 63/5/11 
f 64/7/11 59/7/11 58/5/11 
f 58/5/11 63/5/11 64/7/11 
f 60/9/11 59/7/11 64/7/11 
f 64/7/11 65/9/11 60/9/11 
f 62/3/11 61/2/11 66/2/11 
f 66/2/11 67/3/11 62/3/11 
f 63/5/11 62/3/11 67/3/11 
f 67/3/11 68/5/11 63/5/11 
f 64/7/11 63/5/11 68/5/11 
f 68/5/11 69/7/11 64/7/11 
f 65/9/11 64/7/11 69/7/11 
f 69/7/11 70/9/11 65/9/11 
f 67/3/11 66/2/11 71/2/11 
f 71/2/11 72/3/11 67/3/11 
f 68/5/11 67/3/11 72/3/11 
f 72/3/11 73/5/11 68/5/11 
f 69/7/11 68/5/11 73/5/11 
f 73/5/11 74/7/11 69/7/11 
f 70/9/11 69/7/11 74/7/11 
f 74/7/11 75/9/11 70/9/11 
f 72/3/11 71/2/11 76/2/11 
f 76/2/11 77/3/11 72/3/11 
f 77/3/11 76/2/11 78/2/11 
f 78/2/11 79/3/11 77/3/11 
f 80/3/11 79/3/11 78/2/11 
f 78/2/11 81/2/11 80/3/11 
f 80/3/11 81/2/11 82/2/11 
f 82/2/11 83/3/11 80/3/11 
f 75/9/11 74/7/11 84/7/11 
f 84/7/11 85/9/11 75/9/11 
f 85/9/11 84/7/11 86/7/11 
f 86/7/11 87/9/11 85/9/11 
f 87/9/11 86/7/11 88/7/11 
f 88/7/11 89/9/11 87/9/11 
f 89/9/11 88/7/11 90/7/11 
f 90/7/11 91/9/11 89/9/11 
f 74/7/11 73/5/11 92/5/11 
f 92/5/11 84/7/11 74/7/11 
f 92/5/11 73/5/11 72/3/11 
f 72/3/11 77/3/11 92/5/11 
f 84/7/11 92/5/11 93/5/11 
f 93/5/11 86/7/11 84/7/11 
f 77/3/11 79/3/11 93/5/11 
f 93/5/11 92/5/11 77/3/11 
f 86/7/11 93/5/11 94/5/11 
f 94/5/11 88/7/11 86/7/11 
f 79/3/11 80/3/11 94/5/11 
f 94/5/11 93/5/11 79/3/11 
f 94/5/11 80/3/11 83/3/11 
f 83/3/11 95/5/11 94/5/11 
f 90/7/11 88/7/11 94/5/11 
f 94/5/11 95/5/11 90/7/11 
f 83/3/12 82/2/12 96/2/12 
f 96/2/12 97/3/12 83/3/12 
f 91/9/13 90/7/13 98/7/13 
f 98/7/13 99/9/13 91/9/13 
f 95/5/14 83/3/14 97/3/14 
f 97/3/14 100/5/14 95/5/14 
f 90/7/15 95/5/15 100/5/15 
f 100/5/15 98/7/15 90/7/15 
f 97/3/16 96/2/16 101/2/16 
f 101/2/16 102/3/16 97/3/16 
f 99/9/17 98/7/17 103/7/17 
f 103/7/17 104/9/17 99/9/17 
f 100/5/18 97/3/18 102/3/18 
f 102/3/18 105/5/18 100/5/18 
f 98/7/19 100/5/19 105/5/19 
f 105/5/19 103/7/19 98/7/19 
f 102/3/20 101/2/20 106/2/20 
f 106/2/20 107/3/20 102/3/20 
f 104/9/21 103/7/21 108/7/21 
f 108/7/21 109/9/21 104/9/21 
f 105/5/22 102/3/22 107/3/22 
f 107/3/22 110/5/22 105/5/22 
f 103/7/23 105/5/23 110/5/23 
f 110/5/23 108/7/23 103/7/23 
f 107/3/24 106/2/24 111/2/24 
f 111/2/24 112/3/24 107/3/24 
f 109/9/25 108/7/25 113/7/25 
f 113/7/25 114/9/25 109/9/25 
f 110/5/26 107/3/26 112/3/26 
f 112/3/26 115/5/26 110/5/26 
f 108/7/27 110/5/27 115/5/27 
f 115/5/27 113/7/27 108/7/27 
f 112/3/28 111/2/28 116/2/28 
f 116/2/28 117/3/28 112/3/28 
f 114/9/29 113/7/29 118/7/29 
f 118/7/29 119/9/29 114/9/29 
f 115/5/30 112/3/30 117/3/30 
f 117/3/30 120/5/30 115/5/30 
f 113/7/31 115/5/31 120/5/31 
f 120/5/31 118/7/31 113/7/31 
f 117/3/32 116/2/32 121/2/32 
f 121/2/32 122/3/32 117/3/32 
f 119/9/33 118/7/33 123/7/33 
f 123/7/33 124/9/33 119/9/33 
f 120/5/32 117/3/32 122/3/32 
f 122/3/32 125/5/32 120/5/32 
f 118/7/33 120/5/33 125/5/33 
f 125/5/33 123/7/33 118/7/33 
f 122/3/34 121/2/34 126/2/34 
f 126/2/34 127/3/34 122/3/34 
f 124/9/35 123/7/35 128/7/35 
f 128/7/35 129/9/35 124/9/35 
f 125/5/36 122/3/36 127/3/36 
f 127/3/36 130/5/36 125/5/36 
f 123/7/37 125/5/37 130/5/37 
f 130/5/37 128/7/37 123/7/37 
f 127/3/38 126/2/38 131/2/38 
f 131/2/38 132/3/38 127/3/38 
f 129/9/39 128/7/39 133/7/39 
f 133/7/39 134/9/39 129/9/39 
f 130/5/40 127/3/40 132/3/40 
f 132/3/40 135/5/40 130/5/40 
f 128/7/41 130/5/41 135/5/41 
f 135/5/41 133/7/41 128/7/41 
f 132/3/11 131/2/11 136/2/11 
f 136/2/11 137/3/11 132/3/11 
f 134/9/11 133/7/11 138/7/11 
f 138/7/11 139/9/11 134/9/11 
f 135/5/11 132/3/11 137/3/11 
f 137/3/11 140/5/11 135/5/11 
f 133/7/42 135/5/42 140/5/42 
f 140/5/42 138/7/42 133/7/42 
f 137/3/11 136/2/11 141/2/11 
f 141/2/11 142/3/11 137/3/11 
f 139/9/11 138/7/11 143/7/11 
f 143/7/11 144/9/11 139/9/11 
f 140/5/43 137/3/43 142/3/43 
f 142/3/11 145/5/11 140/5/11 
f 138/7/42 140/5/42 145/5/42 
f 145/5/42 143/7/42 138/7/42 
f 142/3/11 141/2/11 146/2/11 
f 146/2/11 147/3/11 142/3/11 
f 144/9/11 143/7/11 148/7/11 
f 148/7/11 149/9/11 144/9/11 
f 145/5/11 142/3/11 147/3/11 
f 147/3/11 150/5/11 145/5/11 
f 143/7/42 145/5/42 150/5/42 
f 150/5/42 148/7/42 143/7/42 
f 147/3/11 146/2/11 151/2/11 
f 151/2/11 152/3/11 147/3/11 
f 149/9/11 148/7/11 153/7/11 
f 153/7/11 154/9/11 149/9/11 
f 155/5/11 150/5/11 147/3/11 
f 147/3/11 152/3/11 155/5/11 
f 148/7/42 150/5/42 155/5/42 
f 155/5/42 153/7/42 148/7/42 
f 152/3/44 151/2/44 156/2/44 
f 156/2/44 157/3/44 152/3/44 
f 154/9/45 153/7/45 158/7/45 
f 158/7/46 159/9/46 154/9/46 
f 155/5/47 152/3/47 157/3/47 
f 157/3/47 160/5/47 155/5/47 
f 153/7/48 155/5/48 160/5/48 
f 160/5/49 158/7/49 153/7/49 
f 157/3/50 156/2/50 161/2/50 
f 161/2/50 162/3/50 157/3/50 
f 159/9/51 158/7/51 163/7/51 
f 163/7/51 164/9/51 159/9/51 
f 160/5/52 157/3/52 162/3/52 
f 162/3/52 165/5/52 160/5/52 
f 158/7/53 160/5/53 165/5/53 
f 165/5/53 163/7/53 158/7/53 
f 162/3/54 161/2/54 166/2/54 
f 166/2/54 167/3/54 162/3/54 
f 164/9/55 163/7/55 168/7/55 
f 168/7/55 169/9/55 164/9/55 
f 165/5/56 162/3/56 167/3/56 
f 167/3/56 170/5/56 165/5/56 
f 163/7/55 165/5/55 170/5/55 
f 170/5/55 168/7/55 163/7/55 
f 167/3/11 166/2/11 171/2/11 
f 171/2/11 172/3/11 167/3/11 
f 169/9/11 168/7/11 173/7/11 
f 173/7/11 174/9/11 169/9/11 
f 170/5/11 167/3/11 172/3/11 
f 172/3/11 175/5/11 170/5/11 
f 168/7/42 170/5/42 175/5/42 
f 175/5/42 173/7/42 168/7/42 
f 176/3/11 172/3/11 171/2/11 
f 171/2/11 177/2/11 176/3/11 
f 174/9/11 173/7/11 178/7/11 
f 178/7/11 179/9/11 174/9/11 
f 180/5/11 175/5/11 172/3/11 
f 172/3/11 176/3/11 180/5/11 
f 173/7/42 175/5/42 180/5/42 
f 180/5/42 178/7/42 173/7/42 
f 181/3/11 176/3/11 177/2/11 
f 177/2/11 182/2/11 181/3/11 
f 179/9/11 178/7/11 183/7/11 
f 183/7/11 184/9/11 179/9/11 
f 185/5/11 180/5/11 176/3/11 
f 176/3/11 181/3/11 185/5/11 
f 183/7/42 178/7/42 180/5/42 
f 180/5/42 185/5/42 183/7/42 
f 186/3/11 181/3/11 182/2/11 
f 182/2/11 187/2/11 186/3/11 
f 184/9/11 183/7/11 188/7/11 
f 188/7/11 189/9/11 184/9/11 
f 190/5/11 185/5/11 181/3/11 
f 181/3/11 186/3/11 190/5/11 
f 188/7/42 183/7/42 185/5/42 
f 185/5/42 190/5/42 188/7/42 
f 186/3/11 187/2/11 191/2/11 
f 191/2/11 192/3/11 186/3/11 
f 189/9/11 188/7/11 193/7/11 
f 193/7/11 194/9/11 189/9/11 
f 190/5/11 186/3/11 192/3/11 
f 192/3/11 195/5/11 190/5/11 
f 188/7/42 190/5/42 195/5/42 
f 195/5/42 193/7/42 188/7/42 
f 192/3/57 191/2/57 196/2/57 
f 196/2/57 197/3/57 192/3/57 
f 194/9/58 193/7/58 198/7/58 
f 198/7/58 199/9/58 194/9/58 
f 195/5/59 192/3/59 197/3/59 
f 197/3/59 200/5/59 195/5/59 
f 193/7/60 195/5/60 200/5/60 
f 200/5/60 198/7/60 193/7/60 
f 197/3/11 196/2/11 201/2/11 
f 201/2/11 202/3/11 197/3/11 
f 199/9/11 198/7/11 203/7/11 
f 203/7/11 204/9/11 199/9/11 
f 200/5/11 197/3/11 202/3/11 
f 202/3/11 205/5/11 200/5/11 
f 198/7/61 200/5/61 205/5/61 
f 205/5/61 203/7/61 198/7/61 
f 202/3/11 201/2/11 206/2/11 
f 206/2/11 207/3/11 202/3/11 
f 204/9/11 203/7/11 208/7/11 
f 208/7/11 209/9/11 204/9/11 
f 205/5/43 202/3/43 207/3/43 
f 207/3/43 210/5/43 205/5/43 
f 203/7/61 205/5/61 210/5/61 
f 210/5/61 208/7/61 203/7/61 
f 207/3/11 206/2/11 211/2/11 
f 211/2/11 212/3/11 207/3/11 
f 209/9/11 208/7/11 213/7/11 
f 213/7/11 214/9/11 209/9/11 
f 210/5/43 207/3/43 212/3/43 
f 212/3/43 215/5/43 210/5/43 
f 208/7/61 210/5/61 215/5/61 
f 215/5/61 213/7/61 208/7/61 
f 212/3/11 211/2/11 216/2/11 
f 216/2/11 217/3/11 212/3/11 
f 214/9/11 213/7/11 218/7/11 
f 218/7/11 219/9/11 214/9/11 
f 215/5/43 212/3/43 217/3/43 
f 217/3/43 220/5/43 215/5/43 
f 213/7/61 215/5/61 220/5/61 
f 220/5/61 218/7/61 213/7/61 
f 217/3/11 216/2/11 221/2/11 
f 221/2/11 222/3/11 217/3/11 
f 219/9/11 218/7/11 223/7/11 
f 223/7/11 224/9/11 219/9/11 
f 220/5/43 217/3/43 222/3/43 
f 222/3/43 225/5/43 220/5/43 
f 218/7/61 220/5/61 225/5/61 
f 225/5/61 223/7/61 218/7/61 
f 222/3/11 221/2/11 226/2/11 
f 226/2/11 227/3/11 222/3/11 
f 224/9/11 223/7/11 228/7/11 
f 228/7/11 229/9/11 224/9/11 
f 225/5/43 222/3/43 227/3/43 
f 227/3/43 230/5/43 225/5/43 
f 223/7/61 225/5/61 230/5/61 
f 230/5/61 228/7/61 223/7/61 
f 227/3/11 226/2/11 231/2/11 
f 231/2/11 232/3/11 227/3/11 
f 229/9/11 228/7/11 233/7/11 
f 233/7/11 234/9/11 229/9/11 
f 230/5/43 227/3/43 232/3/43 
f 232/3/43 235/5/43 230/5/43 
f 228/7/61 230/5/61 235/5/61 
f 235/5/61 233/7/61 228/7/61 
f 232/3/11 231/2/11 236/2/11 
f 236/2/11 237/3/11 232/3/11 
f 234/9/11 233/7/11 238/7/11 
f 238/7/11 239/9/11 234/9/11 
f 235/5/43 232/3/43 237/3/43 
f 237/3/43 240/5/43 235/5/43 
f 233/7/61 235/5/61 240/5/61 
f 240/5/61 238/7/61 233/7/61 
f 237/3/11 236/2/11 241/2/11 
f 241/2/11 242/3/11 237/3/11 
f 239/9/11 238/7/11 243/7/11 
f 243/7/11 244/9/11 239/9/11 
f 240/5/42 237/3/42 242/3/42 
f 242/3/42 245/5/42 240/5/42 
f 238/7/11 240/5/11 245/5/11 
f 245/5/11 243/7/11 238/7/11 
f 242/3/11 241/2/11 246/2/11 
f 246/2/11 247/3/11 242/3/11 
f 244/9/11 243/7/11 248/7/11 
f 248/7/11 249/9/11 244/9/11 
f 245/5/42 242/3/42 247/3/42 
f 247/3/42 250/5/42 245/5/42 
f 243/7/11 245/5/11 250/5/11 
f 250/5/11 248/7/11 243/7/11 
f 247/3/11 246/2/11 251/2/11 
f 251/2/11 252/3/11 247/3/11 
f 249/9/11 248/7/11 253/7/11 
f 253/7/11 254/9/11 249/9/11 
f 250/5/42 247/3/42 252/3/42 
f 252/3/42 255/5/42 250/5/42 
f 248/7/11 250/5/11 255/5/11 
f 255/5/11 253/7/11 248/7/11 
f 252/3/11 251/2/11 256/2/11 
f 256/2/11 257/3/11 252/3/11 
f 254/9/11 253/7/11 258/7/11 
f 258/7/11 259/9/11 254/9/11 
f 255/5/61 252/3/61 257/3/61 
f 257/3/61 260/5/61 255/5/61 
f 253/7/43 255/5/43 260/5/43 
f 260/5/43 258/7/43 253/7/43 
f 257/3/11 256/2/11 261/2/11 
f 261/2/11 262/3/11 257/3/11 
f 259/9/11 258/7/11 263/7/11 
f 263/7/11 264/9/11 259/9/11 
f 260/5/61 257/3/61 262/3/61 
f 262/3/61 265/5/61 260/5/61 
f 258/7/43 260/5/43 265/5/43 
f 265/5/43 263/7/43 258/7/43 
f 262/3/11 261/2/11 266/2/11 
f 266/2/11 267/3/11 262/3/11 
f 264/9/11 263/7/11 268/7/11 
f 268/7/11 269/9/11 264/9/11 
f 265/5/61 262/3/61 267/3/61 
f 267/3/61 270/5/61 265/5/61 
f 263/7/43 265/5/43 270/5/43 
f 270/5/43 268/7/43 263/7/43 
f 267/3/11 266/2/11 271/2/11 
f 271/2/11 272/3/11 267/3/11 
f 269/9/11 268/7/11 273/7/11 
f 273/7/11 274/9/11 269/9/11 
f 270/5/61 267/3/61 272/3/61 
f 272/3/61 275/5/61 270/5/61 
f 268/7/43 270/5/43 275/5/43 
f 275/5/43 273/7/43 268/7/43 
f 272/3/11 271/2/11 276/2/11 
f 276/2/11 277/3/11 272/3/11 
f 274/9/11 273/7/11 278/7/11 
f 278/7/11 279/9/11 274/9/11 
f 275/5/61 272/3/61 277/3/61 
f 277/3/61 280/5/61 275/5/61 
f 273/7/43 275/5/43 280/5/43 
f 280/5/43 278/7/43 273/7/43 
f 277/3/11 276/2/11 281/2/11 
f 281/2/11 282/3/11 277/3/11 
f 279/9/11 278/7/11 283/7/11 
f 283/7/11 284/9/11 279/9/11 
f 280/5/61 277/3/61 282/3/61 
f 282/3/61 285/5/61 280/5/61 
f 278/7/43 280/5/43 285/5/43 
f 285/5/43 283/7/43 278/7/43 
f 282/3/11 281/2/11 286/2/11 
f 286/2/11 287/3/11 282/3/11 
f 288/9/11 284/9/11 283/7/11 
f 283/7/11 289/7/11 288/9/11 
f 285/5/61 282/3/61 287/3/61 
f 287/3/61 290/5/61 285/5/61 
f 289/7/43 283/7/43 285/5/43 
f 285/5/43 290/5/43 289/7/43 
f 287/3/62 286/2/62 291/2/62 
f 291/2/62 292/3/62 287/3/62 
f 288/9/63 289/7/63 293/7/63 
f 293/7/63 294/9/63 288/9/63 
f 290/5/64 287/3/64 292/3/64 
f 292/3/64 295/5/64 290/5/64 
f 289/7/65 290/5/65 295/5/65 
f 295/5/65 293/7/65 289/7/65 
f 292/3/66 291/2/66 296/2/66 
f 296/2/67 297/3/67 292/3/67 
f 294/9/68 293/7/68 298/7/68 
f 298/7/69 299/9/69 294/9/69 
f 295/5/70 292/3/70 297/3/70 
f 297/3/71 300/5/71 295/5/71 
f 293/7/72 295/5/72 300/5/72 
f 300/5/73 298/7/73 293/7/73 
f 297/3/74 296/2/74 1/2/74 
f 1/2/75 4/3/75 297/3/75 
f 299/9/76 298/7/76 8/7/76 
f 8/7/77 10/9/77 299/9/77 
f 300/5/78 297/3/78 4/3/78 
f 4/3/79 6/5/79 300/5/79 
f 298/7/80 300/5/80 6/5/80 
f 6/5/81 8/7/81 298/7/81 
# 480 faces

