# 3ds Max Wavefront OBJ Exporter v0.97b - (c)2007 guruware
# File Created: 09.12.2018 15:32:26

newmtl wire_225198087
	Ns 32
	d 1
	Tr 0
	Tf 1 1 1
	illum 2
	Ka 0.8824 0.7765 0.3412
	Kd 0.8824 0.7765 0.3412
	Ks 0.3500 0.3500 0.3500
